<?xml version="1.0" standalone="no"?>
<!DOCTYPE svg PUBLIC "-//W3C//DTD SVG 20010904//EN"
 "http://www.w3.org/TR/2001/REC-SVG-20010904/DTD/svg10.dtd">
<svg version="1.0" xmlns="http://www.w3.org/2000/svg"
 width="1096.000000pt" height="1096.000000pt" viewBox="0 0 1096.000000 1096.000000"
 preserveAspectRatio="xMidYMid meet">
<metadata>
Created by potrace 1.14, written by Peter Selinger 2001-2017
</metadata>
<g transform="translate(0.000000,1096.000000) scale(0.100000,-0.100000)"
fill="#000000" stroke="none">
<path d="M8541 8838 c-148 -19 -354 -58 -451 -85 -96 -27 -322 -122 -429 -181
-156 -85 -248 -170 -445 -412 -74 -91 -103 -140 -127 -215 -13 -40 -27 -65
-36 -65 -8 0 -62 16 -119 35 -136 45 -337 99 -439 119 -363 71 -423 79 -698
97 -325 21 -710 -3 -1067 -67 -74 -13 -155 -31 -180 -39 -25 -8 -121 -33 -214
-56 -93 -22 -219 -58 -280 -81 -169 -61 -159 -62 -184 16 -25 76 -54 125 -128
216 -197 242 -289 327 -445 412 -107 59 -333 154 -429 181 -171 48 -534 103
-700 106 -168 3 -309 -49 -374 -137 -67 -93 -59 -154 41 -306 126 -190 163
-294 194 -536 31 -245 87 -486 148 -632 53 -126 136 -281 183 -341 37 -48 107
-111 130 -120 9 -3 1 -25 -25 -73 -221 -401 -299 -821 -223 -1214 8 -41 12
-77 10 -79 -2 -2 -79 12 -171 32 -416 89 -732 127 -1047 127 -267 1 -418 -21
-531 -77 -61 -30 -72 -40 -59 -53 6 -6 31 2 69 20 121 60 250 80 511 80 290 0
615 -38 999 -116 268 -55 234 -34 279 -174 43 -135 127 -313 204 -438 55 -88
187 -266 222 -297 11 -10 20 -21 20 -25 0 -4 -163 -10 -362 -13 -227 -4 -414
-12 -498 -21 -305 -35 -596 -96 -795 -166 -181 -64 -362 -167 -336 -193 7 -7
21 -2 43 15 49 38 201 111 303 148 204 72 493 131 815 167 116 13 246 17 512
17 l356 1 79 -75 c165 -160 335 -288 555 -420 155 -92 173 -107 144 -124 -44
-25 -222 -162 -277 -213 -66 -62 -172 -193 -218 -272 -17 -28 -40 -87 -51
-130 -18 -71 -19 -90 -10 -183 13 -125 22 -160 57 -224 14 -27 32 -61 40 -75
7 -15 20 -32 28 -39 8 -7 15 -18 15 -25 0 -6 31 -41 68 -76 96 -90 121 -109
141 -109 9 0 26 -7 37 -15 27 -21 41 -18 39 7 -1 14 -8 23 -17 22 -8 -1 -20
13 -27 32 -9 24 -19 34 -39 36 -16 2 -27 9 -27 18 0 8 -9 19 -20 25 -26 14
-110 98 -107 108 1 4 -5 7 -13 7 -8 0 -12 6 -9 14 6 16 -30 79 -39 69 -4 -3
-8 5 -8 18 -5 87 -10 160 -15 198 -4 28 -3 41 4 37 5 -3 12 4 16 17 6 24 38
30 64 14 7 -5 12 -5 11 0 -3 20 2 34 11 28 5 -3 7 -12 3 -20 -3 -8 -1 -15 5
-15 6 0 12 6 15 13 4 9 7 9 18 -1 12 -11 12 -13 0 -10 -8 2 -17 -5 -19 -15 -3
-13 5 -19 28 -24 19 -3 35 -14 40 -27 9 -21 9 -21 9 2 1 27 12 28 31 3 7 -11
17 -18 21 -15 4 2 10 0 14 -6 3 -5 17 -10 30 -10 23 0 27 -13 12 -37 -11 -18
9 -25 49 -17 27 5 35 4 30 -5 -4 -6 -2 -11 4 -11 6 0 8 -5 5 -10 -4 -6 -1 -18
6 -26 12 -14 14 -14 25 0 10 15 13 15 24 1 11 -13 10 -14 -4 -9 -9 3 -16 1
-16 -5 0 -6 9 -11 19 -11 11 0 22 -4 26 -9 3 -6 17 -6 34 -1 23 6 33 4 45 -9
9 -10 16 -22 16 -28 0 -6 6 -13 13 -16 9 -3 13 2 12 16 -1 11 -7 23 -13 25
-20 6 -3 20 18 15 15 -4 19 -11 14 -25 -4 -14 -2 -18 5 -14 16 11 71 -3 71
-18 0 -17 37 -17 44 0 7 17 56 19 57 2 1 -7 0 -21 -1 -32 -1 -10 3 -15 8 -12
5 3 12 -4 15 -16 7 -25 -12 -43 -28 -27 -6 6 -5 13 5 19 8 5 10 10 4 10 -6 0
-17 -7 -25 -16 -10 -12 -10 -17 -1 -23 9 -5 4 -12 -15 -20 -15 -7 -23 -15 -17
-19 10 -8 34 -57 34 -72 0 -6 -7 -10 -15 -10 -8 0 -15 -4 -15 -9 0 -15 27 -20
39 -8 8 8 11 6 11 -8 0 -17 7 -20 40 -20 22 0 40 3 40 8 0 4 -4 7 -9 7 -4 0
-7 13 -5 30 4 30 -9 49 -21 30 -3 -5 -12 -10 -18 -10 -7 0 -4 7 6 14 21 16 9
29 -13 15 -22 -13 -26 -11 -27 13 -2 16 0 19 6 9 7 -11 10 -9 15 6 5 15 13 19
36 15 23 -3 28 -8 21 -19 -5 -9 -4 -28 3 -44 8 -24 16 -29 42 -29 18 0 35 -6
37 -12 4 -8 8 -4 12 9 4 13 11 23 17 23 5 0 4 -9 -2 -20 -10 -18 -8 -20 25
-20 19 0 35 5 35 11 0 6 14 9 35 6 19 -3 32 -1 29 4 -3 5 6 9 20 9 14 0 28 -4
31 -10 9 -15 25 -12 25 4 0 22 17 28 40 16 16 -9 20 -8 20 5 0 8 6 15 14 15 8
0 17 7 20 16 5 13 9 14 20 5 11 -9 20 -6 42 14 21 19 29 22 36 13 6 -10 8 -9
8 4 0 11 6 15 20 11 11 -3 20 -1 20 5 0 12 60 42 98 48 15 3 29 10 33 15 9 15
58 39 80 39 11 0 19 4 19 9 0 5 9 11 20 14 12 3 20 14 20 27 0 19 2 20 15 10
8 -7 15 -11 16 -9 0 2 2 12 4 21 5 27 59 88 78 88 14 0 15 3 5 19 -10 17 -8
24 15 47 26 25 32 38 28 58 -3 16 22 25 41 15 12 -6 18 -6 18 1 0 5 -5 10 -12
10 -6 0 -8 3 -5 6 3 4 0 16 -8 28 -18 25 -19 40 -2 29 16 -10 37 -13 36 -5 -4
25 3 42 16 42 8 0 15 5 15 11 0 5 -6 7 -12 3 -8 -5 -7 0 2 11 11 14 12 17 1
11 -9 -6 -12 -5 -9 5 3 8 16 13 29 11 17 -1 27 5 34 20 6 13 19 24 30 26 11 2
25 9 30 14 7 8 6 9 -2 4 -6 -3 -14 -2 -18 4 -3 5 -1 10 5 10 7 0 10 6 7 14 -4
9 5 16 26 20 19 4 33 2 35 -4 5 -15 32 -12 38 5 8 19 44 20 44 1 0 -15 -27
-30 -49 -27 -10 2 -12 -6 -7 -33 5 -23 3 -36 -4 -36 -6 0 -14 -8 -17 -17 -4
-10 -15 -27 -25 -37 -9 -10 -15 -23 -12 -27 3 -5 -6 -14 -20 -21 -14 -6 -26
-17 -26 -25 0 -7 -5 -13 -11 -13 -5 0 -7 -5 -4 -11 4 -6 -3 -17 -14 -26 -19
-12 -20 -17 -9 -31 11 -13 11 -15 -3 -10 -13 5 -20 -3 -29 -38 -7 -24 -16 -41
-21 -38 -5 3 -13 -6 -19 -20 -5 -14 -14 -26 -20 -26 -5 0 -9 -3 -9 -8 4 -22
-2 -53 -9 -48 -4 2 -14 1 -22 -5 -9 -5 -10 -9 -3 -9 6 0 9 -9 6 -20 -3 -11
-12 -20 -20 -20 -8 0 -17 -9 -20 -20 -3 -11 -8 -20 -12 -20 -16 0 -70 -53 -64
-63 4 -6 0 -8 -10 -4 -14 5 -33 -17 -29 -35 2 -7 -22 -12 -41 -9 -4 1 -10 -6
-13 -14 -4 -8 -14 -15 -24 -15 -10 0 -22 -9 -25 -20 -4 -13 -15 -20 -32 -20
-15 0 -33 -10 -44 -24 -12 -16 -26 -22 -38 -19 -10 3 -30 -2 -43 -11 -14 -9
-28 -13 -31 -9 -4 3 -7 0 -7 -7 0 -7 -3 -11 -6 -7 -3 3 -18 -5 -32 -19 -15
-13 -43 -29 -62 -35 -19 -7 -40 -15 -46 -20 -6 -5 -13 -6 -17 -3 -3 3 -10 -3
-16 -15 -7 -12 -26 -22 -49 -26 -20 -4 -46 -10 -57 -15 -42 -18 -92 -29 -150
-34 -33 -3 -89 -8 -125 -11 -36 -3 -87 -1 -115 5 -81 17 -109 22 -130 25 -11
1 -21 4 -22 5 -2 1 -7 3 -12 4 -5 0 -13 4 -17 9 -4 4 -20 7 -35 7 -15 0 -30 4
-34 10 -9 15 -95 10 -95 -6 0 -8 5 -14 10 -14 6 0 30 -9 52 -20 23 -11 50 -20
60 -20 10 0 18 -4 18 -8 0 -5 6 -9 13 -9 62 -4 114 -18 128 -35 13 -17 28 -20
97 -19 110 1 279 27 360 56 37 13 84 26 104 30 39 6 236 100 352 167 163 95
347 261 433 391 26 40 50 74 53 77 20 17 57 82 76 134 l22 61 98 -3 c64 -2
119 3 154 12 328 88 300 77 384 149 l59 51 136 18 c75 10 207 22 293 28 265
16 461 71 682 191 39 21 110 54 158 73 110 44 343 161 445 222 284 171 557
403 733 623 l65 81 75 0 c100 0 374 -26 530 -50 353 -54 744 -163 1039 -289
78 -33 105 -38 99 -19 -11 33 -426 181 -693 247 -285 71 -552 113 -852 134
l-172 12 50 75 c69 103 181 331 218 443 17 51 42 141 55 201 14 59 27 111 30
114 17 16 395 25 596 14 337 -19 702 -82 935 -162 69 -24 75 -24 75 -5 0 14
-50 32 -220 79 -325 91 -809 139 -1190 118 -107 -6 -195 -10 -196 -9 0 1 3 49
8 107 30 350 -80 765 -294 1105 l-61 98 24 21 c67 57 162 217 240 404 61 146
117 387 148 632 31 242 68 346 194 536 70 106 91 158 83 212 -9 67 -64 136
-140 174 -121 61 -257 71 -525 36z m501 -128 c6 0 4 -7 -3 -17 -13 -15 -11
-16 11 -10 23 5 23 5 7 -7 -10 -8 -13 -16 -8 -17 6 -2 12 -15 13 -28 2 -17 -2
-24 -17 -27 -11 -1 -21 -8 -23 -14 -2 -6 -9 -16 -16 -23 -6 -6 -17 -23 -24
-37 -24 -48 -87 -147 -105 -164 -9 -10 -15 -21 -12 -26 3 -5 -8 -23 -24 -41
-17 -18 -35 -46 -42 -63 -6 -17 -18 -46 -26 -64 -8 -18 -11 -37 -8 -42 3 -6 1
-10 -4 -10 -6 0 -11 -5 -11 -11 0 -6 -6 -25 -14 -42 -17 -40 -41 -150 -62
-292 -9 -60 -20 -118 -25 -127 -5 -9 -10 -30 -10 -45 -1 -15 -8 -43 -16 -62
-9 -18 -16 -39 -17 -45 -1 -6 -5 -17 -9 -23 -5 -7 -5 -17 -2 -23 3 -5 2 -10
-2 -10 -8 0 -30 -48 -29 -61 1 -4 -6 -15 -14 -25 -9 -11 -22 -32 -30 -49 -8
-16 -21 -34 -27 -38 -7 -4 -13 -13 -13 -20 0 -7 -9 -18 -20 -25 -12 -7 -18
-17 -15 -22 3 -6 2 -10 -4 -10 -5 0 -12 -8 -15 -18 -3 -9 -18 -25 -33 -33 -26
-16 -27 -16 -60 20 -19 20 -41 48 -51 64 -9 15 -20 27 -25 27 -4 0 -6 4 -2 9
7 12 -25 30 -41 24 -6 -2 -16 7 -23 21 -9 16 -19 22 -32 19 -15 -4 -18 -1 -13
11 4 10 1 16 -7 16 -22 0 -89 52 -89 69 0 24 -20 41 -47 41 -13 0 -31 9 -40
20 -10 11 -25 20 -34 20 -9 0 -24 9 -34 20 -10 11 -23 20 -28 20 -24 0 -74 51
-86 87 -10 32 -10 48 3 98 9 32 16 68 16 80 0 11 9 45 21 75 11 30 25 69 31
85 12 33 98 157 132 190 38 36 160 140 181 152 62 39 305 150 341 157 61 11
101 25 166 55 36 17 69 31 73 31 9 0 125 71 147 90 41 36 50 41 71 38 30 -3
47 9 40 29 -5 13 -2 15 11 10 10 -4 22 -7 28 -7z m-42 -14 c0 -3 -4 -8 -10
-11 -5 -3 -10 -1 -10 4 0 6 5 11 10 11 6 0 10 -2 10 -4z m-510 -17 c0 -6 6 -9
13 -6 7 3 13 -3 14 -12 1 -9 3 -23 5 -31 2 -10 -4 -14 -19 -12 -12 2 -24 -2
-28 -8 -3 -6 -11 -8 -16 -5 -5 4 -16 -1 -25 -10 -15 -15 -18 -15 -35 1 -15 14
-17 19 -7 26 10 6 10 8 -1 8 -8 0 -11 3 -8 6 4 4 13 1 21 -5 12 -10 17 -9 25
7 6 11 7 22 3 26 -3 4 1 4 11 0 13 -5 16 -2 11 10 -4 12 0 16 15 16 12 0 21
-5 21 -11z m-6533 -14 c-8 -18 11 -30 40 -27 21 3 30 -2 71 -38 22 -19 138
-90 147 -90 4 0 37 -14 73 -31 65 -30 105 -44 166 -55 36 -7 279 -118 341
-157 21 -12 143 -116 181 -152 34 -33 120 -157 132 -190 6 -16 20 -55 31 -85
12 -30 21 -64 21 -75 0 -12 7 -48 16 -80 13 -50 13 -66 3 -98 -12 -36 -62 -87
-86 -87 -5 0 -18 -9 -28 -20 -10 -11 -25 -20 -34 -20 -9 0 -24 -9 -34 -20 -9
-11 -27 -20 -40 -20 -27 0 -47 -17 -47 -41 0 -17 -67 -69 -89 -69 -8 0 -11 -6
-7 -16 5 -12 2 -15 -13 -11 -13 3 -23 -3 -32 -19 -7 -14 -17 -23 -23 -21 -16
6 -48 -12 -41 -24 4 -5 2 -9 -2 -9 -5 0 -16 -12 -25 -27 -10 -16 -32 -44 -51
-64 -33 -36 -34 -36 -60 -20 -15 8 -30 24 -33 33 -3 10 -10 18 -15 18 -6 0 -7
4 -4 10 3 5 -3 15 -15 22 -11 7 -20 18 -20 25 0 7 -6 16 -13 20 -6 4 -19 22
-27 38 -8 17 -20 37 -26 45 -7 8 -14 20 -15 25 -8 31 -25 65 -32 65 -4 0 -5 5
-2 10 3 6 3 16 -2 23 -4 6 -8 17 -9 23 -1 6 -8 27 -17 45 -8 19 -15 47 -16 62
0 15 -5 36 -10 45 -5 9 -16 67 -25 127 -21 142 -45 252 -62 292 -8 17 -14 36
-14 42 0 6 -5 11 -11 11 -5 0 -7 4 -4 10 3 5 0 24 -8 42 -8 18 -20 47 -26 64
-7 17 -25 45 -42 63 -16 18 -27 36 -24 41 3 5 -3 16 -12 26 -18 17 -81 116
-105 164 -7 14 -18 31 -24 37 -7 7 -14 17 -16 23 -2 6 -12 13 -23 14 -15 3
-19 10 -17 27 1 13 7 26 13 28 5 1 2 9 -8 17 -16 12 -16 12 7 7 22 -6 23 -5
12 9 -11 14 -10 17 5 21 32 8 35 7 30 -8z m23 -15 c0 -5 -2 -10 -4 -10 -3 0
-8 5 -11 10 -3 6 -1 10 4 10 6 0 11 -4 11 -10z m526 -16 c-5 -12 -2 -15 11
-10 10 4 14 4 11 0 -4 -4 -3 -15 3 -26 8 -16 13 -17 25 -7 8 6 17 9 21 5 3 -3
0 -6 -8 -6 -11 0 -11 -2 -1 -8 10 -7 8 -12 -7 -26 -17 -16 -20 -16 -35 -1 -9
9 -20 14 -25 10 -5 -3 -13 -1 -16 5 -4 6 -16 10 -28 8 -15 -2 -21 2 -19 12 2
8 4 22 5 31 1 9 7 15 14 12 7 -3 13 0 13 6 0 6 9 11 21 11 15 0 19 -4 15 -16z
m5864 -4 c0 -5 -4 -10 -10 -10 -5 0 -10 5 -10 10 0 6 5 10 10 10 6 0 10 -4 10
-10z m-75 -69 c0 -20 -5 -26 -22 -27 -13 -1 -23 3 -23 8 0 6 7 8 15 4 9 -3 15
0 15 9 0 8 -9 15 -19 15 -11 0 -22 4 -25 9 -3 4 7 6 22 5 15 -2 21 -1 14 2 -6
3 -10 10 -7 15 10 15 31 -13 30 -40z m-5685 29 c0 -5 -4 -10 -10 -10 -5 0 -10
5 -10 10 0 6 5 10 10 10 6 0 10 -4 10 -10z m5780 -4 c0 -2 -11 -6 -25 -8 -14
-3 -25 -1 -25 3 0 5 11 9 25 9 14 0 25 -2 25 -4z m-166 -22 c3 -8 2 -13 -3
-10 -5 3 -14 -1 -21 -9 -14 -17 -71 -47 -78 -41 -9 10 41 61 66 67 15 4 28 7
28 8 1 0 5 -6 8 -15z m-5535 -16 c-10 -7 -6 -8 13 -5 15 2 25 0 22 -4 -3 -5
-14 -9 -25 -9 -10 0 -19 -7 -19 -15 0 -9 6 -12 15 -9 8 4 15 2 15 -4 0 -5 -10
-9 -22 -8 -18 1 -23 7 -23 26 0 28 15 51 29 43 4 -3 2 -10 -5 -15z m-69 -7 c0
-4 -11 -6 -25 -3 -14 2 -25 6 -25 8 0 2 11 4 25 4 14 0 25 -4 25 -9z m200 -44
c12 -15 20 -30 18 -33 -7 -6 -64 24 -78 41 -7 8 -16 12 -21 9 -5 -3 -6 1 -3 9
8 22 59 6 84 -26z m5288 6 c-3 -17 -63 -37 -80 -27 -17 11 6 36 29 31 13 -2
26 0 29 4 9 16 25 10 22 -8z m-5234 -32 c3 -4 16 -6 29 -4 23 5 46 -20 29 -31
-17 -10 -77 10 -80 27 -3 18 13 24 22 8z m5080 -52 c-8 -14 -21 -11 -21 5 0 8
6 12 14 9 7 -3 10 -9 7 -14z m-34 -13 c0 -29 -19 -44 -31 -25 -7 12 -10 12
-21 0 -10 -10 -10 -12 0 -7 9 5 12 -5 11 -41 -1 -26 -3 -40 -6 -30 -2 9 -8 15
-13 12 -4 -3 -6 5 -2 17 l5 23 -24 -20 c-13 -11 -26 -22 -29 -24 -3 -2 3 -1
13 2 19 7 24 -8 4 -16 -16 -6 -41 12 -50 35 -4 13 2 20 28 30 19 6 35 16 35
21 0 15 42 47 62 47 12 0 18 -7 18 -24z m-4893 -21 c0 -17 -13 -20 -21 -6 -4
5 0 12 6 14 7 3 13 6 14 6 0 1 1 -6 1 -14z m71 -14 c12 -10 22 -23 22 -28 0
-5 16 -15 35 -21 26 -10 32 -17 28 -30 -9 -23 -34 -41 -50 -35 -20 8 -15 23 5
16 9 -3 15 -4 12 -2 -3 2 -16 13 -29 24 l-24 20 5 -23 c4 -12 2 -20 -2 -17 -5
3 -11 -3 -13 -12 -3 -10 -5 4 -6 30 -1 36 2 46 12 41 9 -5 9 -3 -1 7 -11 12
-14 12 -21 0 -12 -19 -31 -4 -31 25 0 30 27 32 58 5z m4832 -5 c0 -2 -8 -10
-17 -17 -16 -13 -17 -12 -4 4 13 16 21 21 21 13z m-4879 -53 c13 -16 12 -17
-3 -4 -10 7 -18 15 -18 17 0 8 8 3 21 -13z m4669 -13 c0 -5 -5 -10 -11 -10 -5
0 -7 5 -4 10 3 6 8 10 11 10 2 0 4 -4 4 -10z m84 -24 c15 -13 26 -25 26 -27 0
-2 -21 -5 -46 -6 -25 -1 -51 -6 -58 -12 -7 -6 -17 -7 -21 -3 -5 4 -5 2 -1 -5
3 -6 16 -10 29 -8 21 4 21 4 3 -10 -17 -13 -21 -12 -34 6 -9 13 -20 18 -33 14
-11 -4 -19 -2 -19 4 0 6 7 11 15 11 8 0 15 7 15 15 0 8 5 15 11 15 6 0 9 -7 5
-15 -4 -13 -2 -14 14 -5 11 6 20 18 20 26 0 8 5 12 10 9 6 -3 10 -1 10 4 0 19
28 12 54 -13z m-4549 -16 c3 -5 1 -10 -4 -10 -6 0 -11 5 -11 10 0 6 2 10 4 10
3 0 8 -4 11 -10z m-45 -11 c0 -5 5 -7 10 -4 6 3 10 -1 10 -9 0 -8 9 -20 20
-26 16 -9 18 -8 14 5 -4 8 -1 15 5 15 6 0 11 -7 11 -15 0 -8 7 -15 15 -15 8 0
15 -5 15 -11 0 -6 -8 -8 -19 -4 -13 4 -24 -1 -33 -14 -13 -18 -17 -19 -34 -6
-18 14 -18 14 3 10 13 -2 26 2 29 8 4 7 4 9 -1 5 -4 -4 -14 -3 -21 3 -7 6 -33
11 -58 12 -25 1 -46 4 -46 6 0 2 11 14 26 27 26 25 54 32 54 13z m4380 -89 c0
-4 -11 -7 -24 -6 -13 0 -22 6 -19 12 5 13 43 7 43 -6z m45 -18 c-8 -9 -25 20
-18 31 3 5 10 2 15 -7 6 -10 7 -20 3 -24z m0 -14 c25 4 25 4 10 -24 -8 -16
-15 -35 -15 -41 0 -7 -6 -13 -13 -13 -21 0 -48 -35 -41 -54 3 -9 14 -16 23
-16 13 0 13 -2 2 -9 -9 -6 -10 -11 -3 -15 6 -4 9 -13 6 -21 -4 -8 -10 -13 -14
-10 -4 3 -13 -1 -19 -9 -13 -15 -5 -87 10 -97 10 -6 -10 -25 -48 -46 -26 -15
-63 -17 -63 -4 0 5 -15 12 -32 15 -54 10 -163 88 -155 110 3 6 0 20 -6 31 -5
11 -6 17 -2 13 4 -4 20 7 36 23 15 16 34 29 41 29 8 0 21 9 31 20 16 19 37 27
37 14 0 -3 -10 -15 -22 -26 -20 -16 -20 -18 -3 -9 15 7 25 5 39 -7 21 -18 21
-18 -2 37 -3 9 -1 12 5 8 12 -7 27 20 24 41 -1 6 2 12 8 12 5 0 16 7 25 15 8
9 17 11 21 6 3 -6 -4 -15 -15 -21 -22 -12 -18 -33 4 -24 7 3 16 -2 20 -12 7
-17 -9 -44 -26 -44 -5 0 -2 7 6 16 20 19 20 24 0 24 -8 0 -13 -4 -10 -9 4 -5
-3 -7 -14 -4 -27 7 -25 -12 2 -31 26 -18 38 -20 38 -6 0 5 18 33 40 62 22 29
38 59 35 66 -3 8 -2 19 2 25 5 8 9 7 11 -4 2 -11 10 -15 27 -11z m-4292 -13
c-5 -13 -23 -22 -23 -11 0 15 14 35 21 31 4 -3 6 -12 2 -20z m70 13 c3 -8 -5
-14 -19 -14 -28 -2 -32 12 -6 19 9 3 18 5 18 6 1 0 4 -5 7 -11z m-47 -46 c-4
-10 10 -38 34 -70 22 -29 40 -57 40 -62 0 -14 12 -12 38 6 27 19 29 38 2 31
-11 -3 -18 -1 -14 4 3 5 -2 9 -10 9 -20 0 -20 -5 0 -24 8 -9 11 -16 6 -16 -17
0 -33 27 -26 44 4 10 13 15 20 12 22 -9 26 12 4 24 -11 6 -18 15 -15 21 4 5
13 3 21 -6 9 -8 20 -15 25 -15 6 0 9 -6 8 -12 -3 -21 12 -48 24 -41 6 4 8 0 4
-10 -22 -54 -22 -53 -1 -35 14 12 24 14 39 7 17 -9 17 -7 -2 9 -13 11 -23 23
-23 26 0 13 21 5 37 -14 10 -11 23 -20 31 -20 7 0 26 -13 41 -29 16 -16 32
-27 36 -23 4 4 3 -2 -2 -13 -6 -11 -9 -25 -6 -31 8 -22 -101 -100 -154 -110
-18 -3 -33 -10 -33 -15 0 -13 -37 -11 -63 4 -38 21 -58 40 -48 46 15 10 23 82
10 97 -6 8 -15 12 -19 9 -4 -3 -10 2 -14 10 -3 8 0 17 6 21 7 4 6 9 -3 15 -11
7 -11 9 2 9 9 0 20 7 23 16 7 19 -20 54 -41 54 -7 0 -13 6 -13 13 0 6 -7 25
-15 41 -15 28 -15 28 10 24 17 -4 25 -1 25 9 0 8 5 11 10 8 6 -4 8 -14 6 -23z
m4224 -176 c0 -3 -4 -8 -10 -11 -5 -3 -10 -1 -10 4 0 6 5 11 10 11 6 0 10 -2
10 -4z m-4200 -46 c0 -5 -2 -10 -4 -10 -3 0 -8 5 -11 10 -3 6 -1 10 4 10 6 0
11 -4 11 -10z m2750 -169 c0 -14 41 -21 61 -11 12 7 19 6 22 -3 4 -8 6 -6 6 4
1 15 21 18 51 6 76 -32 136 -45 126 -28 -11 16 25 21 41 5 12 -11 13 -18 4
-27 -17 -17 -14 -50 4 -44 8 4 17 2 20 -3 3 -5 13 -6 21 -3 12 5 13 7 3 14
-10 6 -5 11 14 18 16 6 36 11 46 11 10 0 24 6 30 14 7 8 24 12 43 10 17 -2 28
-1 25 3 -4 3 0 15 10 25 17 19 39 25 28 8 -3 -6 4 -10 17 -10 22 -1 22 -1 4
-15 -23 -17 -14 -20 15 -5 15 8 19 8 17 -2 -2 -9 12 -14 47 -15 56 -3 126 -22
137 -37 4 -5 22 -10 40 -10 18 -1 32 -6 31 -12 -1 -6 13 -10 35 -8 20 1 44 -4
52 -11 15 -13 41 -22 81 -30 12 -3 25 -9 28 -14 3 -5 23 -12 43 -16 21 -4 49
-18 63 -31 14 -13 30 -24 35 -24 5 0 27 -18 49 -40 22 -22 45 -40 51 -40 6 0
19 -14 29 -31 10 -17 21 -29 24 -27 9 5 57 -44 57 -59 0 -8 7 -16 15 -19 8 -4
15 -12 15 -20 0 -8 7 -14 15 -14 8 0 15 -9 15 -19 0 -10 7 -21 15 -24 8 -4 26
-25 40 -47 15 -23 32 -40 39 -37 14 6 40 -29 31 -43 -3 -5 4 -11 15 -15 11 -3
20 -13 20 -21 0 -8 12 -32 26 -54 14 -21 23 -44 19 -49 -3 -6 1 -11 11 -11 20
0 43 -28 44 -53 0 -10 5 -15 10 -12 6 3 10 -2 10 -11 0 -20 47 -104 59 -104 4
0 13 -12 19 -26 7 -14 8 -23 2 -19 -5 3 -10 2 -10 -4 0 -5 5 -13 10 -16 6 -4
8 -10 5 -15 -6 -9 34 -91 50 -102 7 -5 6 -8 0 -8 -6 0 -11 -9 -11 -20 0 -11 4
-20 9 -20 5 0 7 -7 3 -15 -3 -8 -1 -15 5 -15 6 0 7 -4 4 -10 -3 -5 -2 -10 3
-10 12 0 10 -50 -2 -69 -6 -9 -5 -12 1 -8 15 9 23 -29 10 -42 -6 -6 -7 -11 -3
-11 5 0 3 -7 -5 -16 -7 -9 -13 -28 -14 -42 -3 -49 -43 -132 -65 -133 -8 0 -10
-3 -4 -5 14 -6 -6 -51 -33 -76 -10 -9 -30 -28 -45 -42 -16 -14 -28 -22 -28
-18 -1 4 -7 -5 -15 -20 -8 -15 -24 -30 -35 -33 -11 -4 -18 -11 -15 -16 4 -5 1
-9 -4 -9 -6 0 -11 -5 -11 -11 0 -12 -80 -89 -92 -89 -5 0 -18 -9 -30 -20 -12
-10 -25 -17 -29 -14 -4 2 -14 -4 -21 -14 -7 -11 -30 -25 -50 -33 -21 -7 -38
-17 -38 -21 0 -4 -6 -8 -13 -8 -7 0 -29 -9 -50 -20 -20 -11 -43 -20 -51 -20
-7 0 -31 -14 -52 -31 -22 -17 -46 -28 -56 -26 -10 3 -16 1 -12 -4 3 -5 2 -14
-2 -21 -5 -7 -11 -5 -21 7 -12 18 -13 18 -13 -3 0 -21 -32 -47 -43 -35 -4 3
-22 -2 -41 -11 -19 -9 -41 -16 -50 -16 -10 0 -28 -11 -42 -25 -24 -24 -40 -33
-30 -17 2 4 -4 8 -14 8 -10 0 -16 -6 -13 -13 4 -11 -1 -11 -23 -3 -20 8 -30 8
-32 1 -5 -14 -39 -14 -47 -1 -9 14 -21 12 -41 -7 -15 -16 -17 -16 -29 1 -13
17 -14 17 -24 -1 -6 -10 -11 -13 -11 -8 0 11 -49 13 -66 2 -7 -4 -30 -8 -51
-10 -22 -2 -45 -7 -52 -11 -6 -4 -11 -1 -12 6 0 10 -2 10 -6 1 -2 -7 -9 -13
-14 -13 -6 0 -8 4 -4 9 3 5 1 13 -5 16 -6 4 -9 1 -8 -5 2 -7 -14 -13 -37 -16
-22 -2 -49 -5 -60 -7 -11 -2 -39 -7 -62 -11 -24 -4 -43 -13 -43 -19 0 -8 -3
-7 -9 1 -12 20 -18 19 -36 -3 -9 -11 -13 -14 -9 -6 5 11 1 13 -17 9 -13 -3
-33 -9 -43 -13 -13 -6 -17 -5 -12 3 10 17 -9 23 -38 12 -20 -7 -36 -4 -78 18
-29 16 -80 39 -113 52 -33 13 -64 27 -70 32 -5 4 -18 8 -30 8 -11 0 -33 7 -49
15 -15 8 -31 13 -35 11 -3 -2 -7 6 -7 19 -2 25 -43 77 -56 69 -13 -9 -9 8 7
26 14 16 14 17 -11 12 -19 -3 -25 -1 -20 7 4 6 0 14 -8 17 -12 5 -13 11 -6 25
7 12 7 25 0 39 -5 11 -15 29 -20 40 -6 11 -7 20 -2 20 4 0 6 16 4 35 -2 19
-10 35 -16 35 -18 0 -14 44 4 52 12 5 12 7 -2 7 -22 1 -23 13 -2 53 9 16 11
27 6 24 -6 -3 -12 1 -16 9 -3 8 0 15 7 15 8 0 6 4 -3 10 -8 5 -11 10 -7 10 4
0 3 9 -3 20 -9 16 -8 20 7 20 13 0 14 3 5 12 -15 15 -16 29 -1 25 6 -1 14 4
16 11 3 6 -1 12 -9 12 -9 0 -13 15 -14 45 -1 31 3 45 12 45 11 0 11 5 3 24 -8
16 -17 22 -28 19 -9 -4 -6 3 8 16 24 21 24 22 5 36 -16 13 -16 14 -1 9 13 -5
16 -2 11 10 -4 10 -1 16 7 16 10 0 10 3 1 12 -14 14 -16 32 -3 23 5 -3 12 -1
16 5 3 5 -3 10 -14 10 -12 0 -21 7 -21 15 0 8 5 15 11 15 5 0 8 4 4 9 -3 5 3
12 12 14 14 4 13 5 -4 6 -30 1 -37 17 -11 24 39 10 47 -17 44 -145 -2 -116 12
-287 33 -383 43 -194 96 -352 132 -391 15 -16 44 -25 122 -37 161 -25 206 -28
379 -28 562 0 1093 198 1387 517 96 104 179 244 201 336 8 37 7 47 -10 70 -11
15 -29 51 -41 79 -34 87 -104 222 -164 314 -226 350 -523 572 -864 645 -138
30 -346 25 -456 -11 -151 -48 -302 -144 -403 -254 -28 -32 -52 -53 -52 -46 0
6 -5 11 -11 11 -6 0 -8 -8 -4 -19 9 -28 -9 -33 -21 -6 -10 21 -8 25 17 36 26
10 31 16 28 36 0 3 6 10 15 15 9 5 13 16 9 26 -4 13 -2 13 10 -3 15 -18 16
-18 17 -2 0 9 7 17 15 17 8 0 15 5 15 11 0 6 -7 9 -15 6 -8 -4 -17 -1 -21 5
-4 7 -3 8 4 4 7 -4 20 7 33 28 20 35 39 47 39 26 0 -5 5 -10 11 -10 8 0 8 4
-1 15 -15 17 -5 35 20 35 20 0 35 26 20 35 -17 11 -11 43 10 50 12 4 17 11 14
18 -5 8 -2 8 7 0 7 -7 18 -13 24 -13 5 0 3 5 -5 10 -13 8 -11 11 8 16 12 4 22
11 22 18 0 6 4 5 9 -3 8 -12 14 -13 37 -3 25 12 26 14 9 32 -9 10 -22 17 -28
16 -7 -2 -9 -1 -4 1 4 3 5 8 2 13 -3 4 4 6 15 3 11 -3 20 0 20 6 0 6 -5 11
-11 11 -6 0 -9 9 -6 19 4 16 0 19 -24 16 -19 -3 -29 0 -29 9 0 8 -7 17 -16 20
-8 3 -13 2 -10 -3 3 -5 -1 -12 -10 -15 -26 -10 -52 -7 -57 7 -2 6 -8 0 -12
-15 -5 -21 -12 -27 -29 -24 -11 2 -26 -4 -32 -12 -12 -16 -54 -8 -54 11 0 8 3
8 12 -1 15 -15 38 -16 38 -2 0 6 -7 10 -15 10 -16 0 -20 12 -8 24 11 10 12 36
2 36 -5 0 -9 -5 -9 -12 0 -6 -3 -8 -7 -4 -12 12 26 34 47 29 11 -3 20 0 20 6
0 6 5 11 10 11 6 0 10 -4 10 -9z m486 -3 c5 -7 2 -9 -9 -5 -8 3 -21 -1 -28 -9
-6 -8 -14 -12 -16 -10 -7 7 20 35 34 36 6 0 15 -5 19 -12z m-2400 -63 c16 -3
49 -8 72 -11 24 -4 46 -13 49 -21 3 -8 13 -11 23 -8 10 3 40 1 66 -6 80 -18
84 -18 84 -9 0 4 9 6 19 3 11 -3 27 0 37 5 13 7 24 6 41 -5 12 -8 30 -13 38
-9 8 3 15 1 15 -4 0 -6 12 -10 26 -10 19 0 25 -4 21 -14 -4 -10 0 -14 13 -11
13 2 17 -1 14 -10 -4 -9 0 -12 14 -8 13 3 28 -3 42 -19 11 -12 28 -31 37 -40
9 -10 21 -28 28 -40 6 -13 19 -22 28 -22 9 1 16 -1 15 -5 -2 -21 4 -30 19 -24
12 5 15 2 10 -10 -5 -12 -1 -17 13 -17 11 0 20 -6 20 -14 0 -8 9 -17 19 -21
10 -3 21 -15 24 -27 5 -16 12 -20 36 -16 16 2 28 1 25 -4 -3 -4 0 -8 5 -8 6 0
11 -7 11 -17 0 -9 3 -13 7 -10 10 10 34 -29 28 -46 -3 -7 2 -20 11 -28 16 -13
17 -12 11 6 -7 20 -7 20 8 0 14 -18 13 -20 -7 -32 -13 -7 -17 -12 -10 -13 7 0
10 -4 7 -10 -3 -5 -2 -10 3 -10 14 0 42 -68 35 -86 -4 -12 -3 -15 5 -10 7 4
12 1 12 -9 0 -10 5 -13 12 -9 7 5 8 3 4 -5 -5 -7 0 -21 10 -32 9 -10 13 -19 8
-19 -5 0 -3 -4 5 -9 12 -8 12 -12 2 -24 -9 -11 -9 -17 -1 -22 6 -4 9 -14 6
-22 -4 -9 -1 -22 5 -29 6 -8 8 -14 3 -14 -5 0 -3 -4 5 -9 8 -5 16 -26 17 -46
1 -21 7 -70 14 -110 7 -40 11 -91 8 -114 -2 -22 1 -42 6 -44 5 -2 3 -14 -5
-27 -7 -14 -12 -29 -10 -35 2 -5 5 -31 6 -57 2 -26 6 -51 10 -57 3 -6 2 -11
-3 -11 -6 0 -13 -7 -16 -16 -4 -10 -2 -13 6 -8 7 5 8 3 3 -6 -11 -17 -15 -71
-18 -212 -1 -65 -6 -118 -10 -118 -5 0 -7 -6 -4 -12 2 -7 -3 -21 -11 -31 -9
-10 -16 -39 -17 -72 0 -30 -4 -57 -8 -61 -12 -13 -8 -24 8 -18 8 4 15 1 15 -5
0 -10 -14 -14 -45 -14 -6 0 -10 -12 -9 -26 1 -16 7 -26 16 -25 8 1 15 -5 15
-12 0 -7 -5 -12 -11 -11 -6 1 -10 -7 -9 -18 1 -19 1 -19 -11 -2 -16 21 -26 22
-26 3 0 -8 -6 -16 -12 -19 -7 -2 -9 -8 -5 -13 4 -5 12 -2 16 5 7 10 13 11 27
2 17 -9 17 -10 2 -11 -15 0 -16 -4 -8 -26 6 -14 10 -26 10 -27 0 -1 -16 -3
-36 -5 -29 -2 -35 1 -30 13 3 9 2 13 -4 10 -6 -3 -10 -14 -11 -23 0 -11 -3
-12 -6 -4 -2 6 -9 12 -14 12 -6 0 -7 -4 -4 -10 3 -5 2 -10 -4 -10 -5 0 -13 5
-16 11 -5 7 -15 5 -31 -6 -14 -9 -29 -13 -34 -10 -5 3 -7 0 -4 -8 8 -22 -26
-30 -43 -10 -8 10 -12 13 -9 6 9 -18 -44 -56 -60 -43 -9 8 -16 7 -26 -4 -11
-12 -15 -12 -30 1 -17 15 -18 14 -19 -3 0 -12 -2 -14 -6 -5 -5 11 -7 11 -14 0
-6 -10 -9 -8 -9 10 0 18 -4 22 -17 16 -26 -11 -85 -26 -108 -29 -11 -1 -30 -8
-41 -14 -12 -6 -36 -14 -55 -17 -18 -3 -35 -8 -38 -11 -2 -2 -12 3 -21 11 -16
14 -19 14 -34 0 -9 -9 -16 -14 -16 -11 0 3 0 9 0 14 1 6 -35 14 -126 27 -48 6
-59 9 -65 19 -4 4 -27 11 -53 13 -25 3 -46 8 -46 12 0 3 -17 7 -37 9 -20 1
-50 9 -66 17 -17 8 -40 15 -52 15 -12 0 -25 3 -29 8 -4 4 -11 7 -14 7 -4 0
-33 13 -64 28 -31 15 -62 27 -69 27 -6 0 -17 7 -23 15 -6 9 -21 17 -33 18 -12
0 -19 5 -17 9 3 4 -2 8 -10 8 -9 0 -25 9 -36 20 -12 12 -26 18 -32 14 -6 -4
-8 -3 -4 4 3 6 -6 13 -25 17 -17 4 -33 13 -35 20 -3 6 -23 18 -45 25 -21 7
-39 17 -39 22 0 4 -11 8 -25 8 -16 0 -25 6 -25 15 0 8 -7 15 -16 15 -8 0 -12
5 -9 10 3 6 0 10 -8 10 -7 0 -24 11 -36 24 -12 13 -35 26 -50 29 -15 3 -49 26
-77 51 -27 25 -57 46 -68 46 -12 0 -16 5 -12 15 3 8 -3 19 -14 25 -10 5 -22
19 -25 30 -3 11 -11 20 -16 20 -15 0 -50 36 -53 53 -2 17 -31 47 -45 47 -6 0
-11 5 -11 11 0 6 -7 17 -15 25 -8 9 -15 27 -15 41 0 15 -12 36 -31 54 -18 17
-33 42 -35 61 -3 18 -7 38 -9 45 -2 7 0 15 5 18 7 4 6 13 0 25 -13 24 -13 43
0 35 6 -3 10 1 10 10 0 9 -4 14 -10 10 -5 -3 -5 7 1 25 6 16 15 33 20 36 5 3
9 10 9 15 0 6 -4 8 -9 4 -13 -7 -6 28 11 63 8 15 15 47 17 71 1 24 9 51 17 59
11 11 12 17 3 28 -10 12 -9 13 6 8 13 -5 16 -4 11 4 -4 7 -2 12 4 12 6 0 8 4
5 10 -6 9 32 71 48 78 4 2 7 9 7 15 0 7 22 35 48 63 26 29 48 58 50 65 2 7 15
23 30 36 15 13 23 23 18 23 -10 0 55 60 66 60 4 0 9 8 12 18 3 10 18 25 33 34
40 24 73 54 73 67 0 6 7 11 15 11 8 0 15 5 15 10 0 6 7 10 15 10 8 0 19 9 25
20 6 11 15 18 19 15 5 -2 26 11 47 30 21 20 44 33 50 31 6 -2 25 4 43 15 17
10 31 15 31 11 0 -4 5 1 11 12 9 15 13 16 20 5 7 -11 9 -10 9 4 0 9 6 17 14
17 8 0 22 7 30 16 9 9 22 17 30 18 7 1 20 8 29 16 36 33 47 40 60 40 8 0 35
11 60 25 51 29 68 33 151 40 32 2 61 7 64 10 3 2 11 0 18 -5 6 -6 25 -13 40
-15z m2018 0 c-4 -8 -11 -12 -16 -9 -6 4 -5 10 3 15 19 12 19 11 13 -6z m-11
-29 c15 -11 15 -15 3 -19 -8 -3 -16 -1 -18 5 -5 13 -28 2 -28 -13 0 -6 5 -7
10 -4 6 3 10 4 10 1 0 -3 -9 -10 -20 -16 -16 -8 -20 -8 -20 4 0 8 7 21 15 29
8 8 11 17 8 21 -12 12 22 5 40 -8z m730 -280 c312 -93 610 -360 786 -706 32
-63 71 -148 86 -188 l27 -74 -36 -71 c-85 -167 -263 -325 -503 -446 -109 -54
-333 -136 -333 -121 0 5 28 35 61 67 103 98 176 220 210 351 23 91 25 240 4
329 -96 410 -551 622 -962 451 -143 -59 -281 -172 -359 -294 -20 -30 -37 -54
-40 -52 -11 12 54 207 101 304 125 257 309 412 560 470 96 22 289 12 398 -20z
m1745 -23 c-6 -7 -14 -13 -18 -13 -11 0 -7 34 5 42 14 10 26 -14 13 -29z
m-2618 17 c0 -5 -5 -10 -11 -10 -5 0 -7 5 -4 10 3 6 8 10 11 10 2 0 4 -4 4
-10z m-3814 -50 c0 -11 -3 -20 -6 -20 -13 0 -28 23 -23 36 7 19 29 7 29 -16z
m6410 -12 c-1 -13 -8 -30 -16 -38 -8 -8 -26 -39 -39 -67 -14 -29 -33 -60 -43
-70 -10 -9 -18 -21 -18 -28 0 -19 -34 -52 -47 -48 -7 3 -13 0 -13 -5 0 -6 6
-12 13 -15 8 -3 6 -9 -8 -20 -23 -18 -41 -11 -24 9 10 12 9 13 -6 8 -13 -5
-16 -4 -11 4 4 7 2 12 -4 12 -6 0 -9 4 -6 9 4 5 1 11 -6 13 -7 3 -8 9 -3 19 5
7 10 21 10 29 5 62 3 59 34 50 25 -7 28 -6 24 11 -5 17 10 25 40 20 4 0 7 4 7
9 0 6 -6 10 -12 10 -7 1 1 7 17 14 19 8 34 10 42 4 7 -6 14 -4 19 3 4 8 3 9
-4 5 -7 -4 -12 -2 -12 3 0 6 5 11 10 11 6 0 9 6 8 13 -2 6 3 11 10 10 6 -2 12
2 12 7 0 6 -4 10 -10 10 -20 0 -10 19 13 23 12 2 22 5 23 6 0 0 0 -9 0 -21z
m-6366 -39 c0 -5 -4 -9 -10 -9 -5 0 -10 -4 -10 -10 0 -5 6 -9 13 -7 6 1 11 -4
10 -10 -2 -7 2 -13 7 -13 6 0 10 -5 10 -11 0 -5 -5 -7 -12 -3 -7 4 -8 3 -4 -5
5 -7 12 -9 19 -3 8 6 23 4 42 -4 17 -7 24 -13 18 -14 -7 0 -13 -4 -13 -10 0
-5 3 -9 8 -9 29 5 44 -3 39 -20 -4 -17 -1 -18 24 -11 31 9 29 12 34 -50 0 -8
5 -22 10 -29 5 -10 4 -16 -3 -19 -7 -2 -10 -8 -6 -13 3 -5 0 -9 -6 -9 -6 0 -8
-5 -4 -12 5 -8 2 -9 -11 -4 -15 5 -16 4 -6 -8 17 -20 -1 -27 -24 -9 -14 11
-16 17 -7 20 6 3 12 9 12 15 0 5 -6 8 -12 5 -14 -4 -48 29 -48 48 0 7 -8 19
-18 28 -10 10 -29 41 -43 70 -13 28 -31 59 -39 67 -8 8 -15 24 -16 36 0 16 5
20 23 16 13 -2 23 -8 23 -13z m3643 -142 c-26 -30 -78 -132 -118 -231 -19 -46
-40 -82 -48 -84 -11 -2 -15 4 -14 17 1 12 8 21 16 21 11 0 11 4 -3 19 -17 18
-17 20 0 29 11 6 17 22 17 42 0 24 6 35 24 43 26 12 31 27 7 27 -15 0 -13 5
46 77 6 7 5 13 -2 15 -6 2 9 18 32 36 24 18 41 32 36 32 -4 0 -4 5 0 12 5 8
11 5 17 -10 8 -17 6 -27 -10 -45z m614 -159 c-3 -8 -6 -5 -6 6 -1 11 2 17 5
13 3 -3 4 -12 1 -19z m113 -4 c0 -8 -5 -12 -10 -9 -6 4 -8 11 -5 16 9 14 15
11 15 -7z m380 -148 c0 -2 -8 -10 -17 -17 -16 -13 -17 -12 -4 4 13 16 21 21
21 13z m-1265 -26 c-3 -6 -16 -62 -29 -125 -12 -64 -26 -114 -32 -113 -5 2 -8
9 -8 16 1 7 -5 11 -14 10 -9 -2 -18 5 -20 14 -3 14 1 16 15 11 10 -3 15 -2 10
2 -4 5 3 19 15 32 14 15 17 23 8 23 -9 0 -8 6 5 20 16 18 16 20 1 26 -22 9
-20 24 4 24 11 0 20 7 20 15 0 8 -4 15 -9 15 -7 0 -8 17 -2 38 1 1 10 2 22 2
11 0 17 -5 14 -10z m1010 -24 c103 -47 190 -192 189 -313 -1 -82 -21 -113 -73
-113 -63 0 -101 52 -101 139 0 31 -55 151 -69 151 -6 0 -26 14 -46 31 -39 35
-47 79 -18 111 22 24 58 23 118 -6z m380 -135 c3 -5 2 -12 -3 -15 -5 -3 -9 1
-9 9 0 17 3 19 12 6z m-1525 -141 c0 -5 -2 -10 -4 -10 -3 0 -8 5 -11 10 -3 6
-1 10 4 10 6 0 11 -4 11 -10z m1268 -325 c5 -61 -6 -102 -40 -141 -27 -31 -36
-35 -72 -32 -36 3 -41 6 -44 30 -2 15 3 39 11 55 8 15 18 44 22 63 11 54 32
71 79 68 40 -3 41 -4 44 -43z m-824 -427 l61 -40 -80 7 c-44 4 -85 11 -92 17
-10 8 -35 77 -58 158 -5 18 8 9 50 -38 32 -35 85 -81 119 -104z m-844 11 c0
-6 -5 -7 -11 -3 -6 3 -15 0 -20 -7 -7 -11 -9 -11 -9 3 0 17 19 29 33 21 4 -2
7 -9 7 -14z m600 -298 c91 -22 140 -46 140 -67 0 -13 -6 -15 -27 -10 -16 4
-86 18 -158 32 -71 13 -134 29 -138 33 -34 34 67 41 183 12z m-1212 -148 c30
-32 50 -138 25 -129 -8 3 -41 13 -75 22 -60 15 -103 36 -93 45 2 3 -4 5 -15 5
-10 0 -17 -4 -14 -7 2 -4 0 -10 -6 -14 -11 -7 -13 15 -2 30 4 6 22 11 40 12
27 2 32 0 23 -11 -8 -10 -8 -16 3 -25 11 -9 15 -8 20 6 5 12 1 23 -12 33 -10
9 -17 21 -14 29 4 11 6 11 13 0 7 -11 9 -10 9 4 0 10 4 15 10 12 5 -3 18 -1
27 4 27 15 33 14 61 -16z m47 7 c-3 -5 -10 -10 -16 -10 -5 0 -9 5 -9 10 0 6 7
10 16 10 8 0 12 -4 9 -10z m1887 -493 c14 -12 13 -15 -18 -36 -34 -24 -44 -41
-22 -41 22 0 118 51 119 63 0 8 2 8 6 -2 5 -11 7 -11 14 0 7 12 10 12 21 0 10
-10 10 -12 1 -7 -7 4 -13 2 -13 -3 0 -12 14 -14 47 -5 13 4 20 10 17 15 -5 9
-1 10 38 12 28 2 37 -30 11 -40 -10 -3 -22 -12 -26 -20 -5 -9 -14 -10 -25 -4
-9 4 -28 7 -42 5 -14 -3 -30 -5 -37 -6 -7 -1 -10 -5 -7 -10 3 -4 -1 -8 -9 -8
-8 0 -20 -7 -27 -15 -11 -13 -15 -13 -21 -3 -11 18 -31 17 -53 -4 -16 -14 -22
-15 -35 -5 -12 10 -14 9 -8 -5 4 -11 1 -19 -6 -19 -7 -1 -19 -3 -27 -4 -8 -1
-27 -3 -42 -4 -16 0 -28 -6 -28 -12 0 -5 5 -7 12 -3 7 4 8 3 4 -5 -6 -9 -11
-9 -22 0 -8 7 -33 13 -56 13 -33 1 -47 -4 -74 -30 -18 -18 -35 -30 -38 -26 -3
3 -6 -4 -6 -16 0 -12 -4 -22 -10 -22 -5 0 -7 -6 -4 -14 4 -11 -1 -14 -16 -13
-14 1 -20 7 -17 17 2 10 -3 16 -14 16 -10 0 -15 -4 -13 -8 8 -13 -41 -19 -66
-8 -23 10 -23 10 -2 6 26 -5 30 10 5 17 -14 4 -12 5 5 6 12 0 21 7 20 14 -2 6
5 11 15 11 9 -1 17 3 17 8 0 16 29 40 40 33 6 -4 9 -1 8 5 -2 6 8 19 22 28 14
10 21 12 16 4 -7 -12 63 23 74 37 3 3 19 12 35 19 17 8 42 20 57 27 16 8 30
10 33 4 9 -14 35 -11 33 4 -2 7 7 11 25 10 18 -1 27 3 27 13 0 8 4 13 9 9 5
-3 12 -1 16 5 8 13 16 12 37 -3z m-2242 -40 c14 -3 35 -1 48 4 12 5 22 5 22 1
0 -4 14 -9 31 -10 37 -3 51 -10 44 -22 -8 -13 55 -24 68 -11 16 16 48 14 61
-5 6 -8 19 -16 28 -17 9 -2 23 -8 31 -15 8 -7 29 -14 46 -17 44 -5 73 -16 89
-31 7 -8 17 -12 21 -10 4 3 8 -14 9 -37 2 -31 9 -48 28 -64 33 -30 68 -29 109
3 19 14 36 21 39 15 4 -5 -3 -12 -14 -16 -11 -4 -18 -11 -14 -16 3 -5 10 -7
15 -4 5 4 9 1 9 -5 0 -7 7 -10 18 -6 14 5 14 4 -2 -9 -16 -12 -17 -22 -2 -12
7 4 46 -36 46 -47 0 -6 -7 -3 -14 7 -18 24 -26 21 -26 -8 0 -21 -4 -25 -27
-23 -16 1 -41 -7 -58 -18 -16 -10 -26 -14 -22 -7 4 6 3 14 -2 18 -5 3 -14 -3
-20 -12 -9 -16 -10 -16 -11 4 0 19 -3 21 -30 13 -25 -7 -30 -6 -28 7 2 9 -4
18 -12 20 -13 4 -13 3 0 -6 9 -7 10 -11 3 -11 -6 0 -14 4 -18 10 -3 5 -11 7
-18 5 -19 -7 -35 7 -38 35 -3 19 -10 25 -29 25 -14 0 -30 3 -36 7 -6 4 -27 8
-48 10 -25 1 -35 6 -32 15 3 7 1 13 -3 13 -5 0 -17 3 -27 7 -12 4 -15 3 -10
-5 4 -7 4 -12 -1 -12 -12 0 -35 16 -34 24 3 19 -1 24 -18 29 -14 3 -18 1 -14
-9 4 -12 0 -12 -21 -4 -14 5 -26 8 -26 5 0 -2 -18 2 -39 10 -22 7 -42 11 -45
8 -5 -6 -10 11 -8 28 1 3 -10 5 -24 3 -20 -2 -23 0 -14 11 8 9 6 14 -5 19 -9
3 -13 2 -10 -4 3 -6 -1 -7 -9 -4 -26 10 -19 34 9 34 27 0 34 15 10 24 -8 3
-15 1 -15 -5 0 -6 -7 -8 -16 -5 -8 3 -12 2 -9 -4 9 -15 -5 -12 -22 5 -12 13
-13 18 -2 33 33 43 53 61 59 52 3 -5 17 -11 30 -13z m2540 -2 c0 -8 -4 -15
-10 -15 -5 0 -7 7 -4 15 4 8 8 15 10 15 2 0 4 -7 4 -15z m-170 -35 c0 -5 -5
-10 -11 -10 -5 0 -7 5 -4 10 3 6 8 10 11 10 2 0 4 -4 4 -10z m-2964 -35 c-3
-9 -11 -13 -16 -10 -8 5 -7 11 1 21 14 18 24 11 15 -11z m3419 -186 c-9 -13
-45 -17 -45 -5 0 7 11 12 24 12 14 0 23 -3 21 -7z m-265 -10 c0 -5 5 -7 12 -3
7 4 8 3 4 -5 -5 -7 3 -22 18 -37 13 -14 23 -31 20 -39 -9 -23 12 -25 67 -3 67
25 114 39 106 31 -4 -3 -2 -15 4 -26 9 -15 8 -18 -2 -12 -9 6 -11 3 -6 -9 6
-14 2 -17 -21 -15 -20 3 -37 -5 -56 -24 -22 -22 -31 -26 -42 -16 -11 9 -18 8
-32 -4 -9 -9 -21 -17 -27 -19 -5 -2 -9 -6 -8 -9 1 -3 -5 -6 -13 -6 -7 0 -14 4
-14 9 0 12 -22 10 -54 -7 -16 -9 -36 -13 -43 -11 -12 5 -18 -6 -14 -27 1 -5
-3 -6 -9 -2 -5 3 -10 1 -10 -4 0 -6 -10 -11 -22 -12 -13 0 -17 -3 -10 -6 20
-8 3 -23 -27 -23 -15 0 -32 -5 -39 -12 -7 -7 -12 -9 -12 -5 0 4 -13 1 -30 -8
-16 -8 -41 -15 -55 -15 -14 0 -24 -4 -21 -9 6 -10 -44 -22 -88 -22 -16 0 -36
-5 -45 -12 -12 -10 -14 -9 -8 5 8 21 -13 20 -30 -2 -6 -8 -15 -12 -19 -8 -4 4
-13 3 -20 -3 -7 -5 -33 -11 -58 -12 -25 -1 -46 -5 -46 -9 0 -5 -5 -8 -11 -8
-5 0 -7 5 -4 10 3 6 1 10 -4 10 -6 0 -11 -4 -11 -8 0 -4 -11 -8 -24 -8 -14 0
-24 5 -23 10 1 6 -3 10 -10 11 -6 0 -15 3 -19 8 -11 11 -26 9 -19 -3 13 -21
-13 -9 -31 15 -13 18 -21 21 -27 12 -7 -9 -10 -9 -14 0 -2 7 -3 14 -2 15 2 2
-10 17 -26 34 -17 17 -33 26 -37 21 -3 -6 -6 7 -6 27 0 28 4 36 17 35 9 -1 28
1 42 5 21 6 26 12 22 29 -5 22 -5 22 11 2 16 -20 16 -20 9 0 -7 20 -7 20 21 1
16 -10 26 -13 22 -8 -3 6 -1 14 5 18 6 3 15 1 19 -6 6 -9 10 -6 16 11 4 13 7
28 6 32 -1 5 2 6 7 3 5 -3 14 1 21 9 13 15 44 9 33 -8 -3 -6 -1 -7 5 -3 7 4
12 0 13 -11 0 -14 2 -15 6 -3 3 8 11 19 17 23 7 6 4 7 -7 3 -11 -3 -16 -2 -12
4 3 6 14 10 24 10 9 0 23 6 31 13 12 10 12 9 2 -4 -10 -14 -9 -17 8 -22 11 -3
20 -2 20 1 0 11 60 8 68 -3 12 -17 30 -15 28 3 -1 22 29 18 66 -9 30 -21 69
-25 98 -9 19 10 71 58 68 63 0 1 2 12 6 25 5 14 12 19 19 15 15 -9 67 -11 62
-2 -3 3 7 11 21 18 31 14 55 15 34 1 -11 -7 -8 -10 16 -10 17 0 37 7 44 15 14
17 30 20 30 4z m-170 -9 c0 -5 -2 -10 -4 -10 -3 0 -8 5 -11 10 -3 6 -1 10 4
10 6 0 11 -4 11 -10z m-2860 -44 c0 -3 -4 -8 -10 -11 -5 -3 -10 -1 -10 4 0 6
5 11 10 11 6 0 10 -2 10 -4z m111 -36 c10 0 21 0 25 0 3 1 13 -9 23 -21 10
-13 29 -21 45 -21 16 0 24 -3 20 -7 -5 -3 -10 -13 -12 -22 -2 -13 6 -17 35
-17 21 0 32 3 26 5 -23 8 -13 20 12 15 14 -2 25 -8 25 -12 0 -5 9 -6 20 -3 14
4 20 0 20 -11 0 -14 4 -15 22 -5 18 9 20 9 15 -4 -5 -12 1 -15 29 -12 20 2 40
-3 49 -11 17 -17 51 -18 110 -2 54 15 68 5 35 -25 -14 -12 -36 -42 -49 -67
-30 -56 -36 -60 -74 -49 -16 4 -47 9 -68 11 -21 1 -36 4 -34 7 10 9 -17 29
-34 24 -15 -4 -18 1 -18 22 0 15 -6 32 -13 38 -10 9 -12 8 -7 -4 5 -15 2 -15
-26 -5 -18 6 -37 17 -43 25 -6 8 -20 12 -31 9 -16 -4 -24 2 -36 28 -11 23 -22
32 -37 31 -11 -1 -20 -5 -20 -10 0 -5 -7 -4 -15 3 -9 7 -19 10 -22 6 -4 -4 -1
-11 7 -16 8 -6 11 -10 5 -10 -15 0 -31 13 -37 30 -2 8 -13 15 -24 15 -11 0
-18 6 -16 14 2 11 0 12 -11 3 -17 -15 -31 -3 -16 14 8 9 5 11 -10 7 -12 -3
-21 -1 -21 6 0 6 5 11 11 11 5 0 8 4 4 9 -3 5 9 8 27 7 18 -1 39 3 46 11 11
11 16 10 28 -2 9 -8 24 -15 35 -15z m994 -49 c-2 -4 -19 -5 -37 -3 -27 4 -29
6 -13 12 22 8 57 1 50 -9z m1139 -17 c3 -8 2 -12 -4 -9 -6 3 -10 10 -10 16 0
14 7 11 14 -7z m-1330 -14 c22 -5 51 -21 66 -37 l26 -27 -23 -48 c-13 -26 -23
-52 -23 -57 0 -5 -4 -11 -10 -13 -17 -6 -13 -76 8 -129 8 -19 7 -30 -1 -38 -8
-8 -8 -11 2 -11 9 0 8 -4 -3 -15 -9 -9 -20 -23 -24 -32 -7 -12 -14 -13 -27 -5
-10 5 -36 7 -58 4 -37 -5 -39 -3 -32 17 8 25 0 27 -21 6 -9 -8 -21 -15 -27
-15 -7 0 -6 4 3 10 8 5 11 10 6 10 -6 0 -5 5 1 11 6 6 9 18 6 25 -3 9 3 14 18
15 23 0 23 1 4 9 -11 5 -15 9 -9 9 7 1 14 11 17 22 4 16 11 20 25 17 12 -3 26
2 35 12 14 16 14 19 -1 24 -16 6 -36 17 -72 41 -13 8 -35 12 -97 17 -15 2 -17
34 -3 43 6 3 10 13 10 21 0 28 54 93 90 108 41 18 61 19 114 6z m391 -85 c22
-14 48 -25 57 -25 22 0 40 -33 37 -68 -1 -15 1 -34 4 -42 3 -8 8 -24 13 -35
13 -35 12 -44 -2 -56 -12 -10 -13 -9 -8 5 12 30 -17 16 -30 -15 -7 -17 -16
-30 -20 -29 -12 2 -47 -48 -57 -82 -7 -27 -5 -35 13 -52 l21 -20 -21 -9 c-12
-6 -22 -16 -22 -24 0 -9 -6 -12 -19 -8 -10 3 -35 6 -55 7 -20 1 -36 5 -36 10
0 4 5 8 11 8 5 0 8 4 4 9 -5 10 -37 7 -55 -4 -6 -3 -9 2 -7 12 4 28 18 45 32
39 9 -3 16 8 21 32 14 68 13 93 -5 100 -9 3 -22 12 -29 19 -7 7 -19 13 -26 13
-7 0 -19 12 -27 28 -8 15 -18 30 -23 33 -13 10 3 63 30 100 28 38 96 78 134
78 14 0 43 -11 65 -24z m788 0 c4 -8 2 -17 -2 -20 -5 -2 -11 4 -14 15 -6 23 8
27 16 5z m-2173 -41 c8 -5 21 -17 29 -27 12 -15 12 -17 -1 -12 -9 4 -18 -1
-22 -11 -4 -12 -2 -15 9 -10 8 3 15 1 15 -5 0 -6 4 -8 9 -5 5 4 11 0 13 -6 3
-7 13 -13 24 -13 10 0 20 -8 22 -17 5 -27 -35 -23 -43 3 -4 12 -10 17 -14 12
-12 -17 -73 -15 -87 4 -19 25 -17 32 6 28 11 -2 20 1 20 6 0 5 -8 9 -17 7 -10
-2 -19 4 -19 12 -1 8 -2 21 -3 28 0 7 -6 10 -13 6 -7 -4 -8 -3 -4 4 8 13 53
11 76 -4z m3344 -10 c9 -3 16 -10 16 -15 0 -6 -8 -6 -18 0 -13 7 -23 6 -32 -2
-12 -10 -12 -9 -1 6 15 19 14 19 35 11z m-1 -37 c3 -8 -5 -27 -17 -42 -16 -20
-23 -23 -23 -12 0 9 4 14 9 11 4 -3 8 9 8 25 0 32 14 42 23 18z m-3323 -77 c0
-5 -4 -10 -10 -10 -5 0 -10 5 -10 10 0 6 5 10 10 10 6 0 10 -4 10 -10z m85
-11 c21 -1 24 -3 10 -6 -11 -3 -23 -10 -26 -15 -7 -11 -59 11 -59 25 0 5 10 7
23 3 12 -3 36 -6 52 -7z m438 -21 c21 11 32 12 35 4 2 -6 10 -8 19 -5 10 4 14
2 10 -5 -4 -6 0 -12 8 -14 12 -2 11 -6 -6 -16 -11 -8 -19 -10 -16 -5 3 5 -3
14 -14 21 -10 7 -19 9 -18 5 3 -21 -2 -43 -11 -43 -5 0 -7 7 -4 15 4 8 1 15
-4 15 -6 0 -12 -10 -14 -22 -2 -16 -11 -24 -28 -26 -14 -2 -29 -9 -35 -16 -13
-17 -47 -17 -41 1 3 7 1 13 -4 13 -6 0 -10 -4 -10 -10 0 -5 -7 -10 -15 -10 -8
0 -15 -4 -15 -10 0 -5 -6 -10 -14 -10 -7 0 -19 -6 -25 -14 -6 -7 -28 -13 -49
-13 -21 0 -44 -3 -52 -8 -8 -5 -11 -4 -6 3 3 6 2 13 -4 17 -6 4 -10 -6 -10
-23 0 -30 -19 -36 -49 -17 -9 5 -12 4 -8 -2 8 -13 -32 -46 -49 -39 -8 3 -14 1
-14 -4 0 -6 6 -10 13 -11 9 0 9 -2 -1 -6 -10 -4 -10 -8 -1 -19 9 -11 7 -14
-10 -14 -11 0 -21 -5 -21 -11 0 -5 -4 -8 -9 -4 -5 3 -13 0 -16 -6 -4 -5 -14
-8 -23 -4 -8 3 -19 0 -23 -6 -4 -7 -22 -12 -39 -11 -24 0 -34 -4 -37 -19 -4
-13 -14 -19 -34 -19 -16 0 -29 -5 -29 -10 0 -7 -6 -7 -18 -1 -32 17 -94 -2
-85 -26 5 -11 3 -14 -6 -9 -8 5 -18 0 -27 -13 -9 -12 -20 -19 -25 -15 -5 3 -8
0 -7 -8 2 -7 -3 -12 -9 -11 -7 2 -13 -1 -13 -6 0 -13 -27 -21 -46 -14 -12 5
-13 7 -3 14 8 5 17 3 21 -4 5 -8 11 0 19 21 6 17 17 32 25 32 8 0 14 9 14 20
0 11 5 20 10 20 6 0 21 11 34 25 13 14 29 25 35 25 6 0 14 7 17 15 4 8 10 15
15 15 6 0 34 18 63 40 29 22 56 40 60 40 5 0 21 9 37 21 16 11 29 18 29 14 0
-3 17 3 38 14 20 10 40 18 44 17 4 0 16 6 27 15 10 9 38 20 62 24 24 4 60 15
79 25 45 24 120 51 120 45 0 -3 16 2 36 10 20 8 40 13 44 10 5 -3 12 0 15 6 5
8 12 6 22 -4 13 -13 19 -13 46 1z m147 8 c0 -3 -4 -8 -10 -11 -5 -3 -10 -1
-10 4 0 6 5 11 10 11 6 0 10 -2 10 -4z m2580 -8 c0 -5 -5 -8 -11 -8 -5 0 -7
-4 -4 -10 3 -5 1 -10 -4 -10 -6 0 -11 6 -11 14 0 8 -6 16 -12 19 -7 2 -1 4 14
3 16 0 28 -4 28 -8z m-267 -33 c-3 -5 0 -4 8 3 15 14 49 16 49 3 0 -4 12 -7
27 -5 15 1 35 -2 44 -7 12 -6 19 -5 21 3 3 7 16 13 29 13 14 1 30 5 37 9 7 4
12 2 12 -3 0 -6 -4 -11 -10 -11 -5 0 -10 -7 -10 -15 0 -8 -7 -15 -16 -15 -8 0
-12 5 -9 10 3 6 1 10 -4 10 -14 0 -14 -20 -1 -40 7 -11 10 -11 10 -2 0 7 5 10
11 6 8 -4 7 -9 -2 -15 -7 -4 -16 -6 -20 -3 -4 2 -12 -3 -19 -11 -9 -11 -17
-12 -33 -3 -16 8 -22 8 -25 -1 -2 -6 -16 -11 -32 -11 -20 0 -31 -6 -35 -19 -3
-12 -12 -18 -20 -15 -8 3 -11 12 -8 20 11 30 -17 12 -33 -21 -18 -39 -18 -39
-45 -25 -13 7 -19 7 -19 0 0 -5 -7 -10 -16 -10 -9 0 -12 5 -8 12 11 18 -19 -3
-34 -24 -11 -16 -15 -16 -27 -4 -8 8 -23 13 -32 11 -10 -2 -22 -4 -26 -4 -5
-1 -6 -5 -2 -10 3 -5 1 -12 -5 -16 -5 -3 -10 -3 -10 2 0 4 -14 8 -31 9 -22 1
-29 -3 -25 -13 3 -8 1 -11 -4 -8 -6 4 -9 14 -8 22 2 9 -3 18 -11 21 -10 3 -12
-1 -8 -18 4 -16 1 -24 -14 -27 -10 -3 -17 -9 -14 -13 3 -4 -4 -10 -15 -13 -11
-3 -23 -1 -26 4 -3 5 -11 9 -17 9 -7 0 -6 -4 3 -11 13 -9 13 -10 0 -6 -8 2
-14 11 -14 19 1 10 -5 14 -17 11 -10 -3 -16 -9 -13 -14 3 -5 -2 -9 -11 -9 -9
0 -13 -4 -10 -10 3 -5 4 -10 1 -10 -2 0 -13 -3 -23 -7 -15 -6 -16 -4 -5 9 11
13 9 17 -13 22 -14 4 -30 4 -35 1 -5 -3 -11 -1 -15 5 -4 6 -23 7 -46 4 -29 -5
-49 -2 -74 12 -19 10 -35 23 -35 27 0 5 -6 7 -13 4 -7 -3 -24 1 -38 9 -24 13
-24 13 -1 14 12 0 22 4 22 10 0 5 8 7 18 3 14 -5 13 -3 -3 10 -11 9 -15 17
-10 17 6 0 4 4 -4 9 -9 6 -6 9 13 10 48 3 55 4 51 12 -7 11 23 32 35 24 5 -3
10 -12 10 -18 0 -7 9 -13 19 -13 11 0 17 5 14 10 -4 5 3 7 15 4 12 -4 24 -2
27 3 3 4 16 4 30 -1 13 -5 36 -6 52 -3 50 11 78 9 75 -5 -2 -10 2 -10 18 -2
11 6 20 18 20 27 0 10 6 14 20 10 11 -3 20 0 20 6 0 8 4 7 12 -1 7 -7 16 -12
22 -12 5 0 7 3 3 6 -3 3 -1 11 5 18 13 14 101 13 106 -2 4 -12 41 -4 62 14 8
7 33 11 55 10 50 -4 65 1 65 23 0 13 2 14 9 1 6 -8 7 -19 4 -25z m-1167 -34
c6 -11 22 -35 37 -52 18 -22 24 -37 18 -48 -5 -9 -8 -27 -7 -41 1 -14 -6 -40
-16 -58 -10 -18 -18 -39 -18 -48 0 -8 -11 -20 -25 -26 -14 -6 -25 -15 -25 -19
0 -5 -6 -6 -14 -3 -8 3 -17 1 -21 -5 -3 -6 -21 -11 -40 -11 -20 0 -35 -6 -39
-15 -3 -8 -12 -12 -21 -9 -41 16 -186 -59 -169 -87 2 -5 -7 -11 -21 -15 -14
-3 -25 -12 -25 -19 0 -9 -11 -10 -41 -5 -53 10 -68 25 -40 40 12 6 19 15 16
20 -3 4 1 14 8 22 8 7 13 21 11 31 -1 9 2 17 7 17 5 0 14 11 19 25 5 14 14 25
20 25 6 0 8 -5 4 -11 -5 -8 -2 -9 11 -1 10 5 26 25 35 43 9 21 23 33 33 33 9
-1 15 2 12 6 -9 15 17 23 26 9 8 -12 10 -12 18 0 6 9 11 10 15 2 4 -6 13 -11
19 -11 8 0 8 3 -1 9 -8 5 -12 17 -10 27 4 21 -37 44 -77 44 -13 0 -25 3 -28 8
-2 4 -2 2 -1 -5 2 -7 -1 -15 -6 -18 -6 -4 -10 7 -10 23 0 21 12 41 42 70 23
23 47 42 54 42 6 0 14 6 17 13 4 10 60 26 142 40 29 5 78 -18 91 -42z m388
-66 c3 -8 0 -14 -7 -12 -7 1 -11 -3 -10 -10 2 -7 -4 -10 -12 -7 -18 7 -19 16
-3 32 16 16 25 15 32 -3z m766 -39 c0 -3 -4 -8 -10 -11 -5 -3 -10 -1 -10 4 0
6 5 11 10 11 6 0 10 -2 10 -4z m-1533 -63 c2 -6 -3 -13 -11 -16 -10 -4 -14 0
-13 14 1 20 18 21 24 2z m134 4 c-1 -12 -15 -9 -19 4 -3 6 1 10 8 8 6 -3 11
-8 11 -12z m-57 -16 c3 -5 -3 -11 -13 -14 -14 -3 -18 -1 -14 9 6 16 19 18 27
5z m-414 -40 c0 -18 -18 -21 -30 -6 -10 13 -9 15 9 15 11 0 21 -4 21 -9z m140
-5 c0 -9 -30 -14 -35 -6 -4 6 3 10 14 10 12 0 21 -2 21 -4z m-170 -16 c0 -5
-5 -10 -11 -10 -5 0 -7 5 -4 10 3 6 8 10 11 10 2 0 4 -4 4 -10z m55 -20 c3 -5
1 -10 -4 -10 -6 0 -11 5 -11 10 0 6 2 10 4 10 3 0 8 -4 11 -10z m-1475 -84 c0
-11 -19 -15 -25 -6 -3 5 1 10 9 10 9 0 16 -2 16 -4z m-35 -65 c3 -5 -4 -12
-15 -16 -12 -4 -17 -11 -14 -18 4 -7 3 -8 -2 -4 -12 12 -12 30 1 39 14 10 23
10 30 -1z m2227 -38 c10 -9 18 -24 18 -34 0 -9 5 -19 11 -21 19 -6 2 -72 -25
-99 -41 -41 -64 -54 -133 -76 -26 -9 -40 -7 -79 12 l-47 23 26 16 c23 16 25
22 20 73 -3 35 -1 53 5 49 6 -3 12 -3 14 2 8 19 69 52 96 52 17 0 34 5 37 10
9 15 36 12 57 -7z m-352 -3 c0 -5 -2 -10 -4 -10 -3 0 -8 5 -11 10 -3 6 -1 10
4 10 6 0 11 -4 11 -10z m-1951 -36 c-15 -18 -22 -13 -13 10 3 9 10 13 16 10 5
-3 4 -12 -3 -20z m1838 -4 c1 -11 -2 -22 -8 -25 -5 -4 -9 1 -9 10 0 12 -6 15
-20 10 -11 -3 -20 -2 -20 4 0 9 18 17 45 20 6 0 11 -8 12 -19z m2 -53 c-22
-21 -52 -16 -43 6 3 9 17 14 34 13 28 -1 28 -1 9 -19z m-115 -13 c3 -7 2 -16
-3 -18 -9 -6 -51 21 -51 33 0 13 48 0 54 -15z m-1824 -58 c0 -3 -4 -8 -10 -11
-5 -3 -10 -1 -10 4 0 6 5 11 10 11 6 0 10 -2 10 -4z m1830 -76 c0 -5 -5 -10
-11 -10 -5 0 -7 5 -4 10 3 6 8 10 11 10 2 0 4 -4 4 -10z m-140 -104 c0 -3 -4
-8 -10 -11 -5 -3 -10 -1 -10 4 0 6 5 11 10 11 6 0 10 -2 10 -4z m6 -71 c-8
-22 -35 -18 -33 4 0 11 4 18 8 15 4 -2 11 1 15 8 10 16 18 -6 10 -27z m-1629
1 c-3 -8 -1 -16 4 -18 6 -2 2 -11 -8 -20 -12 -11 -23 -14 -32 -9 -11 7 -10 14
5 35 20 27 40 35 31 12z m73 -22 c0 -8 -4 -14 -10 -14 -5 0 -10 9 -10 21 0 11
5 17 10 14 6 -3 10 -13 10 -21z m40 -2 c0 -4 -9 -14 -19 -22 -11 -7 -18 -18
-15 -22 7 -10 -42 -6 -52 5 -4 4 2 7 13 7 11 0 28 9 39 19 20 21 34 26 34 13z
m520 -262 c0 -5 -4 -10 -10 -10 -5 0 -10 5 -10 10 0 6 5 10 10 10 6 0 10 -4
10 -10z m10 -40 c0 -5 -4 -10 -10 -10 -5 0 -10 5 -10 10 0 6 5 10 10 10 6 0
10 -4 10 -10z m77 -29 c-1 -15 -4 -17 -14 -9 -7 5 -10 14 -7 19 10 16 23 9 21
-10z m-27 -27 c0 -8 -5 -12 -10 -9 -6 4 -8 11 -5 16 9 14 15 11 15 -7z"/>
<path d="M6270 7650 c0 -5 7 -10 15 -10 8 0 15 5 15 10 0 6 -7 10 -15 10 -8 0
-15 -4 -15 -10z"/>
<path d="M6344 7641 c4 -6 16 -16 28 -22 15 -8 18 -8 14 0 -4 6 -16 16 -28 22
-15 8 -18 8 -14 0z"/>
<path d="M6410 7625 c0 -8 2 -15 4 -15 2 0 6 7 10 15 3 8 1 15 -4 15 -6 0 -10
-7 -10 -15z"/>
<path d="M6380 7577 c0 -7 9 -18 20 -25 17 -10 21 -10 26 3 8 19 3 24 -25 30
-12 2 -21 -1 -21 -8z"/>
<path d="M6331 7561 c-16 -10 -5 -17 33 -19 24 -2 27 0 16 13 -14 17 -29 19
-49 6z"/>
<path d="M6208 7453 c7 -3 16 -2 19 1 4 3 -2 6 -13 5 -11 0 -14 -3 -6 -6z"/>
<path d="M4155 7554 c-269 -43 -505 -160 -703 -349 -116 -110 -231 -249 -287
-345 -51 -89 -101 -181 -145 -264 -62 -120 -61 -131 11 -274 75 -146 152 -241
284 -346 39 -31 75 -59 80 -64 65 -52 216 -134 340 -184 323 -132 724 -196
1055 -168 193 16 238 27 261 64 47 77 110 272 143 441 76 388 13 777 -172
1065 -127 199 -362 367 -572 410 -61 12 -249 21 -295 14z m280 -153 c157 -38
270 -105 387 -230 82 -88 124 -153 173 -268 56 -131 55 -135 -11 -69 -136 135
-288 202 -475 210 -228 10 -437 -78 -598 -250 -117 -125 -200 -325 -201 -481
0 -162 72 -350 175 -457 30 -31 55 -59 55 -61 0 -22 -317 128 -429 203 -163
108 -319 279 -371 407 -22 55 -22 56 -5 103 93 246 305 530 514 687 141 107
323 191 463 214 96 16 237 12 323 -8z m145 -405 c0 -3 -4 -8 -10 -11 -5 -3
-10 -1 -10 4 0 6 5 11 10 11 6 0 10 -2 10 -4z m-616 -212 c3 -8 2 -12 -4 -9
-6 3 -10 10 -10 16 0 14 7 11 14 -7z m-20 -30 c3 -8 2 -12 -4 -9 -6 3 -10 10
-10 16 0 14 7 11 14 -7z m837 -51 c90 -84 138 -233 115 -356 -10 -51 -50 -87
-97 -87 -33 0 -41 4 -55 32 -9 17 -20 70 -24 117 -6 73 -13 98 -48 167 -43 83
-53 139 -30 162 7 7 29 12 50 12 32 0 47 -8 89 -47z m-969 -190 c-10 -4 -10
-8 0 -21 12 -15 11 -16 -4 -3 -10 7 -18 17 -18 22 0 5 8 9 18 8 11 0 12 -2 4
-6z m986 -359 c24 -17 28 -49 10 -89 -13 -30 -126 -88 -161 -83 -38 5 -34 51
7 100 20 23 36 45 36 49 0 11 50 38 70 39 9 0 26 -7 38 -16z m262 -74 c0 -5
-2 -10 -4 -10 -3 0 -8 5 -11 10 -3 6 -1 10 4 10 6 0 11 -4 11 -10z m-39 -43
c-6 -8 -7 -18 -3 -22 4 -5 1 -5 -6 -1 -10 6 -10 11 -1 22 6 8 14 14 16 14 3 0
0 -6 -6 -13z m-25 -43 c2 -12 -1 -13 -12 -3 -7 6 -11 16 -8 21 7 11 17 3 20
-18z m35 -76 c-10 -35 -32 -97 -48 -138 l-28 -75 -53 -6 c-30 -4 -95 -10 -145
-13 l-92 -7 72 39 c97 53 173 113 247 194 33 38 61 68 62 68 2 0 -6 -28 -15
-62z m-1116 -8 c-3 -5 -12 -10 -18 -10 -7 0 -6 4 3 10 19 12 23 12 15 0z m30
-20 c-3 -5 -12 -10 -18 -10 -7 0 -6 4 3 10 19 12 23 12 15 0z"/>
<path d="M4588 5238 c-12 -10 -14 -19 -7 -35 13 -35 36 -27 30 10 -1 4 8 3 18
-3 26 -13 36 3 15 24 -19 19 -35 20 -56 4z"/>
<path d="M6135 4510 c-3 -5 -1 -10 4 -10 6 0 11 5 11 10 0 6 -2 10 -4 10 -3 0
-8 -4 -11 -10z"/>
<path d="M4780 4405 c0 -8 4 -15 10 -15 5 0 7 7 4 15 -4 8 -8 15 -10 15 -2 0
-4 -7 -4 -15z"/>
<path d="M6507 4133 c-4 -3 -7 -11 -7 -17 0 -6 5 -5 12 2 6 6 9 14 7 17 -3 3
-9 2 -12 -2z"/>
<path d="M6228 4103 c7 -3 16 -2 19 1 4 3 -2 6 -13 5 -11 0 -14 -3 -6 -6z"/>
<path d="M3895 4340 c3 -5 17 -10 31 -10 14 0 22 4 19 10 -3 6 -17 10 -31 10
-14 0 -22 -4 -19 -10z"/>
<path d="M3910 4310 c0 -5 7 -7 15 -4 8 4 15 8 15 10 0 2 -7 4 -15 4 -8 0 -15
-4 -15 -10z"/>
<path d="M4007 4305 c-5 -11 0 -15 16 -15 12 0 18 4 12 8 -5 4 -13 11 -16 15
-4 4 -9 1 -12 -8z"/>
<path d="M4203 4233 c-15 -5 -17 -23 -4 -23 5 0 11 7 15 15 3 8 4 15 3 14 -1
0 -8 -3 -14 -6z"/>
<path d="M4298 4223 c7 -3 16 -2 19 1 4 3 -2 6 -13 5 -11 0 -14 -3 -6 -6z"/>
<path d="M4115 3870 c3 -5 8 -10 11 -10 2 0 4 5 4 10 0 6 -5 10 -11 10 -5 0
-7 -4 -4 -10z"/>
<path d="M3875 3760 c-3 -5 -1 -10 4 -10 6 0 11 5 11 10 0 6 -2 10 -4 10 -3 0
-8 -4 -11 -10z"/>
<path d="M6348 3883 c7 -3 16 -2 19 1 4 3 -2 6 -13 5 -11 0 -14 -3 -6 -6z"/>
<path d="M5426 3701 c-4 -5 -2 -12 3 -15 5 -4 12 -2 15 3 4 5 2 12 -3 15 -5 4
-12 2 -15 -3z"/>
<path d="M5440 3650 c0 -5 5 -10 11 -10 5 0 7 5 4 10 -3 6 -8 10 -11 10 -2 0
-4 -4 -4 -10z"/>
<path d="M5040 3150 c0 -6 7 -10 15 -10 8 0 15 2 15 4 0 2 -7 6 -15 10 -8 3
-15 1 -15 -4z"/>
<path d="M3275 2980 c3 -5 8 -10 11 -10 2 0 4 5 4 10 0 6 -5 10 -11 10 -5 0
-7 -4 -4 -10z"/>
<path d="M3752 2756 c7 -8 15 -12 17 -11 5 6 -10 25 -20 25 -5 0 -4 -6 3 -14z"/>
<path d="M3800 2710 c0 -5 5 -10 10 -10 6 0 10 5 10 10 0 6 -4 10 -10 10 -5 0
-10 -4 -10 -10z"/>
<path d="M3860 2670 c0 -5 5 -10 11 -10 5 0 7 5 4 10 -3 6 -8 10 -11 10 -2 0
-4 -4 -4 -10z"/>
<path d="M4000 2531 c0 -6 9 -9 19 -8 11 0 17 5 15 9 -7 11 -34 10 -34 -1z"/>
</g>
</svg>
